plan372hw4part1again
…
ℹ Use `spec()` to retrieve the full column specification for this data.
ℹ Specify the column types or set `show_col_types = FALSE` to quiet this message.

rdu_routes = air_traffic |>
  filter(origin == "RDU" | dest == "RDU") |>
  group_by(dest) |>
  summarize(total_passengers = sum(passengers, na.rm = TRUE)) |>
  filter(total_passengers > 10000)
print(rdu_routes)

# A tibble: 35 × 2
   dest  total_passengers
   <chr>            <dbl>
 1 ATL             540190
 2 AUS             101110
 3 BNA             141990
 4 BOS             215960
 5 BWI             130900
 6 CLT             370480
 7 DAL              46530
 8 DCA             129930
 9 DEN             226520
10 DFW             215960
# ℹ 25 more rows
…
